-------------------------------------------------------------------------------
Test set: com.checkmarx.scanee2.AppTest
-------------------------------------------------------------------------------
Tests run: 3, Failures: 1, Errors: 0, Skipped: 0, Time elapsed: 0.025 sec <<< FAILURE!
testApp2(com.checkmarx.scanee2.AppTest)  Time elapsed: 0.005 sec  <<< FAILURE!
junit.framework.AssertionFailedError
	at junit.framework.Assert.fail(Assert.java:47)
	at junit.framework.Assert.assertTrue(Assert.java:20)
	at junit.framework.Assert.assertTrue(Assert.java:27)
	at com.checkmarx.scanee2.AppTest.testApp2(AppTest.java:42)
